<?xml version="1.0" encoding="UTF-8" standalone="no"?>
<!-- Generator: Adobe Illustrator 19.0.0, SVG Export Plug-In . SVG Version: 6.00 Build 0)  -->

<svg
   xmlns:dc="http://purl.org/dc/elements/1.1/"
   xmlns:cc="http://creativecommons.org/ns#"
   xmlns:rdf="http://www.w3.org/1999/02/22-rdf-syntax-ns#"
   xmlns:svg="http://www.w3.org/2000/svg"
   xmlns="http://www.w3.org/2000/svg"
   xmlns:sodipodi="http://sodipodi.sourceforge.net/DTD/sodipodi-0.dtd"
   xmlns:inkscape="http://www.inkscape.org/namespaces/inkscape"
   version="1.1"
   id="Capa_1"
   x="0px"
   y="0px"
   viewBox="0 0 512 512"
   style="enable-background:new 0 0 512 512;"
   xml:space="preserve"
   sodipodi:docname="game-cartridge.svg"
   inkscape:version="0.92.3 (2405546, 2018-03-11)"><metadata
   id="metadata77"><rdf:RDF><cc:Work
       rdf:about=""><dc:format>image/svg+xml</dc:format><dc:type
         rdf:resource="http://purl.org/dc/dcmitype/StillImage" /></cc:Work></rdf:RDF></metadata><defs
   id="defs75" /><sodipodi:namedview
   pagecolor="#ffffff"
   bordercolor="#666666"
   borderopacity="1"
   objecttolerance="10"
   gridtolerance="10"
   guidetolerance="10"
   inkscape:pageopacity="0"
   inkscape:pageshadow="2"
   inkscape:window-width="1920"
   inkscape:window-height="1022"
   id="namedview73"
   showgrid="false"
   inkscape:zoom="0.65186406"
   inkscape:cx="137.83675"
   inkscape:cy="314.20022"
   inkscape:window-x="0"
   inkscape:window-y="0"
   inkscape:window-maximized="1"
   inkscape:current-layer="Capa_1" />
<path
   style="fill:#48709B;"
   d="M512,125.065v302.677c0,3.42-2.771,6.181-6.181,6.181H6.181c-3.41,0-6.181-2.761-6.181-6.181V299.176  c0-3.41,2.771-6.181,6.181-6.181h16.998c3.41,0,6.181-2.761,6.181-6.181v-15.082c0-3.41-2.771-6.181-6.181-6.181H6.181  c-3.41,0-6.181-2.761-6.181-6.181V125.055c0-25.94,21.036-46.976,46.976-46.976h418.037C490.964,78.079,512,99.115,512,125.065z"
   id="path2" />
<path
   style="fill:#8cc153;fill-opacity:1"
   d="M450.21,108.1v225.589c0,23.911-19.45,43.36-43.36,43.36H105.151c-23.911,0-43.36-19.45-43.36-43.36  V108.1c0-11.641,4.605-22.221,12.094-30.019h364.231C445.605,85.879,450.21,96.459,450.21,108.1z"
   id="path4" />
<path
   style="fill:#629ACC;"
   d="M511.392,117.526c-7.716-15.721-24.075-26.568-43.01-26.568H43.618  c-18.935,0-35.294,10.848-43.01,26.568C4.203,95.15,23.601,78.08,46.987,78.08h418.027  C488.399,78.081,507.797,95.151,511.392,117.526z"
   id="path6" />
<path
   style="fill:#0064DB;"
   d="M436.817,108.059v225.589c0,16.545-13.423,29.968-29.968,29.968H105.151  c-16.545,0-29.968-13.423-29.968-29.968V108.059c0-6.367,1.988-12.28,5.388-17.142c5.408-7.757,14.402-12.836,24.58-12.836H406.85  c10.178,0,19.172,5.079,24.58,12.836C434.829,95.779,436.817,101.692,436.817,108.059z"
   id="path8" />

<path
   style="fill:#0086F4;"
   d="M431.43,90.917H80.57c5.408-7.757,14.402-12.836,24.58-12.836h301.699  C417.028,78.081,426.021,83.16,431.43,90.917z"
   id="path12" />







<g
   id="g40"
   style="fill:#8cc153;fill-opacity:1">
	<path
   style="fill:#8cc153;fill-opacity:1"
   d="M484.01,406.016v27.908h-15.453v-20.181H43.443v20.181H27.99v-27.908   c0-4.265,3.451-7.726,7.726-7.726h440.567C480.559,398.29,484.01,401.751,484.01,406.016z"
   id="path34" />
	<path
   style="fill:#8cc153;fill-opacity:1"
   d="M475.939,128.38c-4.268,0-7.726-3.459-7.726-7.726v-0.966c0-4.267,3.459-7.726,7.726-7.726   s7.726,3.459,7.726,7.726v0.966C483.665,124.921,480.206,128.38,475.939,128.38z"
   id="path36" />
	<path
   style="fill:#8cc153;fill-opacity:1"
   d="M36.061,128.38c-4.268,0-7.726-3.459-7.726-7.726v-0.966c0-4.267,3.459-7.726,7.726-7.726   s7.726,3.459,7.726,7.726v0.966C43.788,124.921,40.329,128.38,36.061,128.38z"
   id="path38" />
</g>
<g
   id="g42">
</g>
<g
   id="g44">
</g>
<g
   id="g46">
</g>
<g
   id="g48">
</g>
<g
   id="g50">
</g>
<g
   id="g52">
</g>
<g
   id="g54">
</g>
<g
   id="g56">
</g>
<g
   id="g58">
</g>
<g
   id="g60">
</g>
<g
   id="g62">
</g>
<g
   id="g64">
</g>
<g
   id="g66">
</g>
<g
   id="g68">
</g>
<g
   id="g70">
</g>
</svg>